\relax 
\@writefile{toc}{\contentsline {section}{\numberline {1}Comments}{1}}
\@writefile{toc}{\contentsline {section}{\numberline {2}Misc}{1}}
\@writefile{toc}{\contentsline {section}{\numberline {3}Print}{1}}
\@writefile{toc}{\contentsline {section}{\numberline {4}Clear Log}{2}}
\@writefile{toc}{\contentsline {section}{\numberline {5}Declaring Variables}{2}}
\@writefile{toc}{\contentsline {section}{\numberline {6}Declaring Object}{2}}
\@writefile{toc}{\contentsline {section}{\numberline {7}Printing Variables}{2}}
\@writefile{toc}{\contentsline {section}{\numberline {8}Link JS to HTML}{2}}
\@writefile{toc}{\contentsline {section}{\numberline {9}Finding the Assigned Data Type}{2}}
\@writefile{toc}{\contentsline {section}{\numberline {10}Data Type Conversion}{2}}
\@writefile{toc}{\contentsline {section}{\numberline {11}Math Manipulation}{3}}
\@writefile{toc}{\contentsline {section}{\numberline {12}String Manipulation}{3}}
\@writefile{toc}{\contentsline {section}{\numberline {13}HTML Template}{4}}
\@writefile{toc}{\contentsline {section}{\numberline {14}Array Methods}{4}}
\@writefile{toc}{\contentsline {section}{\numberline {15}Sub-Objects}{5}}
\@writefile{toc}{\contentsline {section}{\numberline {16}Object Literals}{5}}
\@writefile{toc}{\contentsline {section}{\numberline {17}Date and Time}{5}}
\@writefile{toc}{\contentsline {section}{\numberline {18}Logical Operators}{6}}
\@writefile{toc}{\contentsline {section}{\numberline {19}if Statement}{6}}
\@writefile{toc}{\contentsline {section}{\numberline {20}Function}{6}}
\@writefile{toc}{\contentsline {section}{\numberline {21}for Loop}{6}}
\@writefile{toc}{\contentsline {section}{\numberline {22}while Loop}{6}}
\@writefile{toc}{\contentsline {section}{\numberline {23}Popup Messages}{7}}
\@writefile{toc}{\contentsline {section}{\numberline {24}Height and Width of Browser Window}{7}}
\@writefile{toc}{\contentsline {section}{\numberline {25}Scroll Coordinate}{7}}
\@writefile{toc}{\contentsline {section}{\numberline {26}Location Object}{7}}
\@writefile{toc}{\contentsline {section}{\numberline {27}Navigator Object}{7}}
